{
    "result": {
        "data": [
            {
                "id": "5a4c173ff9",
                "device_id": "468f85a0-2a61-11ef-a8ea-8f79bc1b1c88",
                "action": {
                    "valve_program": "",
                    "iri_volume": "",
                    "time_valve_d": "",
                    "iri_sensor_mode": "",
                    "control_mode": ""
                },
                "enable": true,
                "name": "test 12",
                "interval": "1,2,3",
                "time": "08:02",
                "start_time": "22:22",
                "end_time": "22:22",
                "start_date": "2024-06-19",
                "end_date": "2024-06-19",
                "type": "interval"
            },
            {
                "id": "32b4e80829",
                "device_id": "468f85a0-2a61-11ef-a8ea-8f79bc1b1c88",
                "action": {
                    "program_name": "",
                    "iri_sensor_mode": "",
                    "control_mode": "",
                    "valve_program": "",
                    "set_ph": ""
                },
                "enable": true,
                "name": "test13",
                "interval": "3,4,5",
                "time": "23:00",
                "start_time": "08:24",
                "end_time": "08:24",
                "start_date": "2024-06-20",
                "end_date": "2024-06-20",
                "type": "interval"
            },
            {
                "id": "88867f7781",
                "device_id": "468f85a0-2a61-11ef-a8ea-8f79bc1b1c88",
                "action": {
                    "power": "false",
                    "main_pump": "true",
                    "input_pump": "true",
                    "sub_pump": "true"
                },
                "enable": true,
                "name": "test 6",
                "interval": "0,1,2,3,4,5,6",
                "time": "12:08",
                "start_time": "22:11",
                "end_time": "22:11",
                "start_date": "2024-06-20",
                "end_date": "2024-06-20",
                "type": "interval"
            }
        ],
        "pagination": {
            "pageNumber": 2,
            "pageSize": 10,
            "totalElements": 13,
            "totalPages": 2
        }
    }
}